%YAML 1.1
%TAG !u! tag:unity3d.com,2011:
--- !u!74 &7400000
AnimationClip:
  m_ObjectHideFlags: 0
  m_CorrespondingSourceObject: {fileID: 0}
  m_PrefabInstance: {fileID: 0}
  m_PrefabAsset: {fileID: 0}
  m_Name: Walking
  serializedVersion: 6
  m_Legacy: 0
  m_Compressed: 0
  m_UseHighQualityCurve: 1
  m_RotationCurves: []
  m_CompressedRotationCurves: []
  m_EulerCurves: []
  m_PositionCurves: []
  m_ScaleCurves: []
  m_FloatCurves: []
  m_PPtrCurves:
  - curve:
    - time: 0
      value: {fileID: 21300000, guid: 1f8f9f2ac8d000a42b7c7390372f1f72, type: 3}
    - time: 0.083333336
      value: {fileID: 21300000, guid: 85048ea1f1540ef49adcfb67877ff9ee, type: 3}
    - time: 0.16666667
      value: {fileID: 21300000, guid: 69e58f13485b2c04c93a11d13d1d084d, type: 3}
    - time: 0.25
      value: {fileID: 21300000, guid: acebd6ea9d0760948be3d6812d218d32, type: 3}
    - time: 0.33333334
      value: {fileID: 21300000, guid: cc8ebaa22b09132409b2dd22a5af9d95, type: 3}
    - time: 0.41666666
      value: {fileID: 21300000, guid: 32e9ca704db53fa4db35b0ab3860fad2, type: 3}
    - time: 0.5
      value: {fileID: 21300000, guid: 54c5f7abc3bbad94fad129effa5eafc9, type: 3}
    - time: 0.5833333
      value: {fileID: 21300000, guid: 986195a633b1bdf469ac3b3dbe3e0a97, type: 3}
    attribute: m_Sprite
    path: 
    classID: 212
    script: {fileID: 0}
  m_SampleRate: 60
  m_WrapMode: 0
  m_Bounds:
    m_Center: {x: 0, y: 0, z: 0}
    m_Extent: {x: 0, y: 0, z: 0}
  m_ClipBindingConstant:
    genericBindings:
    - serializedVersion: 2
      path: 0
      attribute: 0
      script: {fileID: 0}
      typeID: 212
      customType: 23
      isPPtrCurve: 1
    pptrCurveMapping:
    - {fileID: 21300000, guid: 1f8f9f2ac8d000a42b7c7390372f1f72, type: 3}
    - {fileID: 21300000, guid: 85048ea1f1540ef49adcfb67877ff9ee, type: 3}
    - {fileID: 21300000, guid: 69e58f13485b2c04c93a11d13d1d084d, type: 3}
    - {fileID: 21300000, guid: acebd6ea9d0760948be3d6812d218d32, type: 3}
    - {fileID: 21300000, guid: cc8ebaa22b09132409b2dd22a5af9d95, type: 3}
    - {fileID: 21300000, guid: 32e9ca704db53fa4db35b0ab3860fad2, type: 3}
    - {fileID: 21300000, guid: 54c5f7abc3bbad94fad129effa5eafc9, type: 3}
    - {fileID: 21300000, guid: 986195a633b1bdf469ac3b3dbe3e0a97, type: 3}
  m_AnimationClipSettings:
    serializedVersion: 2
    m_AdditiveReferencePoseClip: {fileID: 0}
    m_AdditiveReferencePoseTime: 0
    m_StartTime: 0
    m_StopTime: 0.59999996
    m_OrientationOffsetY: 0
    m_Level: 0
    m_CycleOffset: 0
    m_HasAdditiveReferencePose: 0
    m_LoopTime: 1
    m_LoopBlend: 0
    m_LoopBlendOrientation: 0
    m_LoopBlendPositionY: 0
    m_LoopBlendPositionXZ: 0
    m_KeepOriginalOrientation: 0
    m_KeepOriginalPositionY: 1
    m_KeepOriginalPositionXZ: 0
    m_HeightFromFeet: 0
    m_Mirror: 0
  m_EditorCurves: []
  m_EulerEditorCurves: []
  m_HasGenericRootTransform: 0
  m_HasMotionFloatCurves: 0
  m_Events: []
