%YAML 1.1
%TAG !u! tag:unity3d.com,2011:
--- !u!74 &7400000
AnimationClip:
  m_ObjectHideFlags: 0
  m_CorrespondingSourceObject: {fileID: 0}
  m_PrefabInstance: {fileID: 0}
  m_PrefabAsset: {fileID: 0}
  m_Name: Dissapear
  serializedVersion: 6
  m_Legacy: 0
  m_Compressed: 0
  m_UseHighQualityCurve: 1
  m_RotationCurves: []
  m_CompressedRotationCurves: []
  m_EulerCurves: []
  m_PositionCurves: []
  m_ScaleCurves: []
  m_FloatCurves: []
  m_PPtrCurves:
  - curve:
    - time: 0
      value: {fileID: 21300000, guid: 474dcd8aa0eed304ba8cf5d6883c01d6, type: 3}
    - time: 0.1
      value: {fileID: 21300000, guid: 9113dd345ec8088479b95463628a7c9f, type: 3}
    - time: 0.21666667
      value: {fileID: 21300000, guid: d22f550746c49914d9c379913d8b4771, type: 3}
    - time: 0.31666666
      value: {fileID: 21300000, guid: dc367ea8ac4956041896f5043ad8882b, type: 3}
    - time: 0.4
      value: {fileID: 21300000, guid: 9b4cf73d33d36b04d9abc344be133659, type: 3}
    - time: 0.5
      value: {fileID: 21300000, guid: 88b2177ef49dee847ba55cdbcc818105, type: 3}
    - time: 0.6
      value: {fileID: 21300000, guid: 85b9ba81c222eb64397df0b4a5bd40e8, type: 3}
    attribute: m_Sprite
    path: 
    classID: 212
    script: {fileID: 0}
  m_SampleRate: 60
  m_WrapMode: 0
  m_Bounds:
    m_Center: {x: 0, y: 0, z: 0}
    m_Extent: {x: 0, y: 0, z: 0}
  m_ClipBindingConstant:
    genericBindings:
    - serializedVersion: 2
      path: 0
      attribute: 0
      script: {fileID: 0}
      typeID: 212
      customType: 23
      isPPtrCurve: 1
    pptrCurveMapping:
    - {fileID: 21300000, guid: 474dcd8aa0eed304ba8cf5d6883c01d6, type: 3}
    - {fileID: 21300000, guid: 9113dd345ec8088479b95463628a7c9f, type: 3}
    - {fileID: 21300000, guid: d22f550746c49914d9c379913d8b4771, type: 3}
    - {fileID: 21300000, guid: dc367ea8ac4956041896f5043ad8882b, type: 3}
    - {fileID: 21300000, guid: 9b4cf73d33d36b04d9abc344be133659, type: 3}
    - {fileID: 21300000, guid: 88b2177ef49dee847ba55cdbcc818105, type: 3}
    - {fileID: 21300000, guid: 85b9ba81c222eb64397df0b4a5bd40e8, type: 3}
  m_AnimationClipSettings:
    serializedVersion: 2
    m_AdditiveReferencePoseClip: {fileID: 0}
    m_AdditiveReferencePoseTime: 0
    m_StartTime: 0
    m_StopTime: 0.6166667
    m_OrientationOffsetY: 0
    m_Level: 0
    m_CycleOffset: 0
    m_HasAdditiveReferencePose: 0
    m_LoopTime: 1
    m_LoopBlend: 0
    m_LoopBlendOrientation: 0
    m_LoopBlendPositionY: 0
    m_LoopBlendPositionXZ: 0
    m_KeepOriginalOrientation: 0
    m_KeepOriginalPositionY: 1
    m_KeepOriginalPositionXZ: 0
    m_HeightFromFeet: 0
    m_Mirror: 0
  m_EditorCurves: []
  m_EulerEditorCurves: []
  m_HasGenericRootTransform: 0
  m_HasMotionFloatCurves: 0
  m_Events:
  - time: 0.6
    functionName: DestroyFirstAid
    data: 
    objectReferenceParameter: {fileID: 0}
    floatParameter: 0
    intParameter: 0
    messageOptions: 0
